\relax 
\providecommand\hyper@newdestlabel[2]{}
\@nameuse{bbl@beforestart}
\providecommand\HyperFirstAtBeginDocument{\AtBeginDocument}
\HyperFirstAtBeginDocument{\ifx\hyper@anchor\@undefined
\global\let\oldcontentsline\contentsline
\gdef\contentsline#1#2#3#4{\oldcontentsline{#1}{#2}{#3}}
\global\let\oldnewlabel\newlabel
\gdef\newlabel#1#2{\newlabelxx{#1}#2}
\gdef\newlabelxx#1#2#3#4#5#6{\oldnewlabel{#1}{{#2}{#3}}}
\AtEndDocument{\ifx\hyper@anchor\@undefined
\let\contentsline\oldcontentsline
\let\newlabel\oldnewlabel
\fi}
\fi}
\global\let\hyper@last\relax 
\gdef\HyperFirstAtBeginDocument#1{#1}
\providecommand\HyField@AuxAddToFields[1]{}
\providecommand\HyField@AuxAddToCoFields[2]{}
\babel@aux{english}{}
\babel@aux{english}{}
\@writefile{toc}{\contentsline {chapter}{\numberline {1}Summary}{1}{chapter.1}\protected@file@percent }
\@writefile{lof}{\addvspace {10\p@ }}
\@writefile{lot}{\addvspace {10\p@ }}
\newlabel{chapt:sum}{{1}{1}{Summary}{chapter.1}{}}
\@writefile{toc}{\contentsline {chapter}{\numberline {2}Problem definition and background}{2}{chapter.2}\protected@file@percent }
\@writefile{lof}{\addvspace {10\p@ }}
\@writefile{lot}{\addvspace {10\p@ }}
\@writefile{toc}{\contentsline {section}{\numberline {2.1}Literature review}{2}{section.2.1}\protected@file@percent }
\@writefile{toc}{\contentsline {section}{\numberline {2.2}Reference solution}{3}{section.2.2}\protected@file@percent }
\@writefile{toc}{\contentsline {chapter}{\numberline {3}Design}{4}{chapter.3}\protected@file@percent }
\@writefile{lof}{\addvspace {10\p@ }}
\@writefile{lot}{\addvspace {10\p@ }}
\newlabel{chapt:doe}{{3}{4}{Design}{chapter.3}{}}
\@writefile{toc}{\contentsline {section}{\numberline {3.1}Architectural Overview}{4}{section.3.1}\protected@file@percent }
\@writefile{lof}{\contentsline {figure}{\numberline {3.1}{\ignorespaces Block Diagram\relax }}{4}{figure.caption.2}\protected@file@percent }
\@writefile{toc}{\contentsline {chapter}{\numberline {4}Implementation}{6}{chapter.4}\protected@file@percent }
\@writefile{lof}{\addvspace {10\p@ }}
\@writefile{lot}{\addvspace {10\p@ }}
\newlabel{chapt:model}{{4}{6}{Implementation}{chapter.4}{}}
\@writefile{lof}{\contentsline {figure}{\numberline {4.1}{\ignorespaces Watermeter\relax }}{7}{figure.caption.3}\protected@file@percent }
\@writefile{toc}{\contentsline {section}{\numberline {4.1}Hardware}{7}{section.4.1}\protected@file@percent }
\@writefile{lof}{\contentsline {figure}{\numberline {4.2}{\ignorespaces Ultrasonic Sensor\relax }}{7}{figure.caption.4}\protected@file@percent }
\@writefile{lof}{\contentsline {figure}{\numberline {4.3}{\ignorespaces ULPLoRa v2.1\relax }}{8}{figure.caption.5}\protected@file@percent }
\@writefile{lof}{\contentsline {figure}{\numberline {4.4}{\ignorespaces DHT Sensor\relax }}{8}{figure.caption.6}\protected@file@percent }
\@writefile{lof}{\contentsline {figure}{\numberline {4.5}{\ignorespaces Timer TPL5110\relax }}{10}{figure.caption.7}\protected@file@percent }
\@writefile{toc}{\contentsline {section}{\numberline {4.2}Electrical Connections}{10}{section.4.2}\protected@file@percent }
\@writefile{lof}{\contentsline {figure}{\numberline {4.6}{\ignorespaces Block Diagram 2\relax }}{10}{figure.caption.8}\protected@file@percent }
\@writefile{toc}{\contentsline {section}{\numberline {4.3}How it Works}{11}{section.4.3}\protected@file@percent }
\@writefile{toc}{\contentsline {section}{\numberline {4.4}Firmware}{11}{section.4.4}\protected@file@percent }
\@writefile{toc}{\contentsline {section}{\numberline {4.5}Testing}{11}{section.4.5}\protected@file@percent }
\@writefile{toc}{\contentsline {chapter}{\numberline {5}Results}{13}{chapter.5}\protected@file@percent }
\@writefile{lof}{\addvspace {10\p@ }}
\@writefile{lot}{\addvspace {10\p@ }}
\newlabel{chapt:results}{{5}{13}{Results}{chapter.5}{}}
\@writefile{toc}{\contentsline {section}{\numberline {5.1}Test 1}{13}{section.5.1}\protected@file@percent }
\@writefile{lof}{\contentsline {figure}{\numberline {5.1}{\ignorespaces Graphical representation\relax }}{14}{figure.caption.9}\protected@file@percent }
\@writefile{toc}{\contentsline {chapter}{\numberline {6}Conclusions}{15}{chapter.6}\protected@file@percent }
\@writefile{lof}{\addvspace {10\p@ }}
\@writefile{lot}{\addvspace {10\p@ }}
\bibstyle{plain}
\bibdata{bibliography.bib}
\@writefile{toc}{\contentsline {chapter}{\numberline {7}Bibliography}{16}{chapter.7}\protected@file@percent }
\@writefile{lof}{\addvspace {10\p@ }}
\@writefile{lot}{\addvspace {10\p@ }}
\@writefile{toc}{\contentsline {chapter}{Bibliography}{16}{chapter.7}\protected@file@percent }
\citation{economon2015su2}
